Taller2
…
a. Retire la columna region

b. Renombre las columnas como edad, sexo, imc, nhijos, fuma, gastos

c. Recodifique las categoras de la variable sexo como masculino y femenino, fuma: s y no.

datos <- datos %>% select(-region) %>%
  rename(edad = 1,sexo = 2,imc = 3,nhijos = 4,fuma = 5,gastos = 6)%>%
  mutate(sexo = recode(sexo, male = "masculino", female = "femenino"),
         fuma = recode(fuma, yes = "si", no = "no"))

datos

## # A tibble: 200 x 6
##     edad sexo        imc nhijos fuma  gastos
##    <dbl> <chr>     <dbl>  <dbl> <chr>  <dbl>
##  1    19 femenino   27.9      0 si      7.59
##  2    18 masculino  33.8      1 no     20.9 
##  3    28 masculino  33        3 no     18.5 
##  4    33 masculino  22.7      0 no      3.33
##  5    32 masculino  28.9      0 no     12.6 
##  6    31 femenino   25.7      0 no      9.76
##  7    46 femenino   33.4      1 no      9.26
##  8    37 femenino   27.7      3 no     20.0 
##  9    37 masculino  29.8      2 no     19.5 
## 10    60 femenino   25.8      0 no     19.7 
## # ... with 190 more rows
…
modelo |> augment()

## # A tibble: 200 x 12
##    gastos  edad sexo     imc nhijos fuma  .fitted  .resid   .hat .sigma  .cooksd
##     <dbl> <dbl> <chr>  <dbl>  <dbl> <chr>   <dbl>   <dbl>  <dbl>  <dbl>    <dbl>
##  1   7.59    19 femen~  27.9      0 si      10.3  -2.68   0.0445   5.77  1.76e-3
##  2  20.9     18 mascu~  33.8      1 no       8.48 12.4    0.0240   5.70  1.95e-2
##  3  18.5     28 mascu~  33        3 no      11.7   6.86   0.0290   5.75  7.26e-3
##  4   3.33    33 mascu~  22.7      0 no       9.36 -6.03   0.0253   5.76  4.86e-3
##  5  12.6     32 mascu~  28.9      0 no      10.7   1.98   0.0171   5.77  3.49e-4
##  6   9.76    31 femen~  25.7      0 no       9.68  0.0765 0.0197   5.77  6.02e-7
##  7   9.26    46 femen~  33.4      1 no      16.0  -6.76   0.0124   5.75  2.92e-3
##  8  20.0     37 femen~  27.7      3 no      12.8   7.10   0.0241   5.75  6.42e-3
##  9  19.5     37 mascu~  29.8      2 no      12.9   6.59   0.0161   5.75  3.62e-3
## 10  19.7     60 femen~  25.8      0 no      17.5   2.23   0.0307   5.77  8.14e-4
## # ... with 190 more rows, and 1 more variable: .std.resid <dbl>
…
